{
  "version": "1.0.0-*",
  "description": "ScaleDotNet Console Application",
  "authors": [ "James" ],
  "tags": [ "" ],
  "projectUrl": "",
  "licenseUrl": "",

  "compilationOptions": {
    "emitEntryPoint": true
  },

  "dependencies": {
    "AWSSDK.DynamoDBv2": "3.1.1.4",
    "AWSSDK.SQS": "3.1.0.5",
    "ScaleDotNet.Core": "1.0.0-*",
    "System.Net.Http": "4.0.1-beta-23516",
    "Microsoft.Extensions.Configuration.Json": "1.0.0-rc1-final"
  },

  "commands": {
    "ScaleDotNetWorker": "ScaleDotNetWorker"
  },

  "frameworks": {
    "dnx451": {}
  }
}
