﻿{
  "version": "1.0.0-*",
  "description": "ScaleDotNet.Core Class Library",
  "authors": [ "om60969" ],
  "tags": [ "" ],
  "projectUrl": "",
  "licenseUrl": "",

  "dependencies": {
    "AWSSDK.DynamoDBv2": "3.1.1.4",
    "Newtonsoft.Json": "8.0.2"
  },

  "frameworks": {
    "net451": { }
  }
}
